…
There are 50400 observations and 8 variables in accel\_data dataset. The
key variables are activity\_counts.

#### 2\)

``` r
total_activity = group_by(accel_data, day_order, day,week) %>% 
  summarise(
    total_activity = sum(activity_counts)
  ) 
total_activity 
```

    ## # A tibble: 35 x 4
    ## # Groups:   day_order, day [35]
    ##    day_order day        week total_activity
    ##        <dbl> <fct>     <dbl>          <dbl>
    ##  1         1 Sunday        1        631105 
    ##  2         2 Monday        1         78828.
    ##  3         3 Tuesday       1        307094.
    ##  4         4 Wednesday     1        340115.
    ##  5         5 Thursday      1        355924.
    ##  6         6 Friday        1        480543.
    ##  7         7 Saturday      1        376254 
    ##  8         8 Sunday        2        422018 
    ##  9         9 Monday        2        295431 
    ## 10        10 Tuesday       2        423245 
    ## # … with 25 more rows
…
